{
    "Categories": "Qt;KDE;X-KDE-settings-system;",
    "KPlugin": {
        "Description": "Software Versions",
        "Description[az]": "Proqram təminatı versiyası",
        "Description[ca@valencia]": "Versions de programari",
        "Description[ca]": "Versions de programari",
        "Description[cs]": "Verze softwaru",
        "Description[de]": "Software-Versionen",
        "Description[en_GB]": "Software Versions",
        "Description[es]": "Versiones de software",
        "Description[eu]": "Softwarearen bertsioak",
        "Description[fi]": "Ohjelmaversiot",
        "Description[fr]": "Versions des logiciels",
        "Description[hu]": "Szoftververziók",
        "Description[ia]": "Versiones de software",
        "Description[id]": "Versi Perangkat Lunak",
        "Description[is]": "Útgáfur hugbúnaðar",
        "Description[it]": "Versioni software",
        "Description[ka]": "პროგრამების ვერსიები",
        "Description[ko]": "소프트웨어 버전",
        "Description[lt]": "Programinės įrangos versijos",
        "Description[nl]": "Softwareversies",
        "Description[nn]": "Programversjonar",
        "Description[pa]": "ਸਾਫਟਵੇਅਰ ਵਰਜ਼ਨ",
        "Description[pl]": "Wersje oprogramowania",
        "Description[pt]": "Versões do 'Software'",
        "Description[pt_BR]": "Versões do software",
        "Description[ro]": "Versiuni de programe",
        "Description[ru]": "Версии приложений",
        "Description[sl]": "Verzije programja",
        "Description[sv]": "Programvaruversioner",
        "Description[tr]": "Yazılım Sürümleri",
        "Description[uk]": "Версії програмного забезпечення",
        "Description[vi]": "Các phiên bản phần mềm",
        "Description[x-test]": "xxSoftware Versionsxx",
        "Description[zh_CN]": "软件版本",
        "Description[zh_TW]": "軟體版本",
        "FormFactors": [
            "handset",
            "tablet",
            "mediacenter"
        ],
        "Icon": "dialog-information",
        "Name": "Information",
        "Name[az]": "Məlumat",
        "Name[ca@valencia]": "Informació",
        "Name[ca]": "Informació",
        "Name[cs]": "Informace",
        "Name[da]": "Information",
        "Name[de]": "Informationen",
        "Name[en_GB]": "Information",
        "Name[es]": "Información",
        "Name[et]": "Teave",
        "Name[eu]": "Informazioa",
        "Name[fi]": "Tiedot",
        "Name[fr]": "Informations",
        "Name[gl]": "Información",
        "Name[hu]": "Információk",
        "Name[ia]": "Information",
        "Name[id]": "Informasi",
        "Name[is]": "Upplýsingar",
        "Name[it]": "Informazioni",
        "Name[ka]": "ინფორმაცია",
        "Name[ko]": "정보",
        "Name[lt]": "Informacija",
        "Name[nl]": "Informatie",
        "Name[nn]": "Informasjon",
        "Name[pa]": "ਜਾਣਕਾਰੀ",
        "Name[pl]": "Informacje",
        "Name[pt]": "Informação",
        "Name[pt_BR]": "Informações",
        "Name[ro]": "Informații",
        "Name[ru]": "Сведения",
        "Name[sk]": "Informácie",
        "Name[sl]": "Informacije",
        "Name[sv]": "Information",
        "Name[ta]": "விவரங்கள்",
        "Name[tr]": "Bilgi",
        "Name[uk]": "Інформація",
        "Name[vi]": "Thông tin",
        "Name[x-test]": "xxInformationxx",
        "Name[zh_CN]": "信息",
        "Name[zh_TW]": "資訊"
    },
    "X-KDE-Keywords": "info, distro, system",
    "X-KDE-Keywords[ast]": "info, información, systema",
    "X-KDE-Keywords[az]": "info, distro, system,məlumat,distribütor,sistem",
    "X-KDE-Keywords[ca@valencia]": "informació, distribució, sistema",
    "X-KDE-Keywords[ca]": "informació, distribució, sistema",
    "X-KDE-Keywords[cs]": "informace, distribuce, systém",
    "X-KDE-Keywords[da]": "info, distribution, system",
    "X-KDE-Keywords[de]": "information,distribution,system",
    "X-KDE-Keywords[en_GB]": "info, distro, system",
    "X-KDE-Keywords[es]": "información, distro, sistema",
    "X-KDE-Keywords[et]": "teave, info, süsteem",
    "X-KDE-Keywords[eu]": "informazioa, banaketa, sistema",
    "X-KDE-Keywords[fi]": "tietoa, jakelu, järjestelmä",
    "X-KDE-Keywords[fr]": "info, distrib, système",
    "X-KDE-Keywords[gl]": "info, información, distro, distribución, sistema",
    "X-KDE-Keywords[hu]": "információ, disztró, rendszer",
    "X-KDE-Keywords[ia]": "info, distro, system",
    "X-KDE-Keywords[it]": "informazioni, distribuzione, sistema",
    "X-KDE-Keywords[ko]": "info, distro, system, 정보, 배포판, 시스템",
    "X-KDE-Keywords[lt]": "informacija, platinamasis paketas, platinimas, distribucija, sistema, distributyvas",
    "X-KDE-Keywords[nl]": "informatie, distributie, systeem",
    "X-KDE-Keywords[nn]": "info, distro, distribusjon, system",
    "X-KDE-Keywords[pa]": "ਜਾਣਕਾਰੀ, ਡਿਸਟਰੋ, ਸਿਸਟਮ",
    "X-KDE-Keywords[pl]": "info, distro, system",
    "X-KDE-Keywords[pt]": "informação, distribuição, sistema",
    "X-KDE-Keywords[pt_BR]": "informação, info, distro, distribuição, sistema",
    "X-KDE-Keywords[ro]": "informații, info, distribuție, sistem",
    "X-KDE-Keywords[ru]": "info,distro,system,информация,дистрибутив,сведения,система",
    "X-KDE-Keywords[sk]": "info, distro, systém",
    "X-KDE-Keywords[sl]": "info, distro, system,sistem",
    "X-KDE-Keywords[sv]": "information, distribution, system",
    "X-KDE-Keywords[tr]": "bilgi, dağıtım, sistem",
    "X-KDE-Keywords[uk]": "info, distro, system, інфо, відомості, дистрибутив, система",
    "X-KDE-Keywords[vi]": "info,distro,system,thông tin,bản phân phối,hệ thống",
    "X-KDE-Keywords[x-test]": "xxinfoxx,xx distroxx,xx systemxx",
    "X-KDE-Keywords[zh_CN]": "info, distro, system, 信息, 发行版, 系统",
    "X-KDE-Keywords[zh_TW]": "info, distro, system, 資訊, 發行版, 系統, 信息"
}
